\relax 
\providecommand\hyper@newdestlabel[2]{}
\providecommand\HyperFirstAtBeginDocument{\AtBeginDocument}
\HyperFirstAtBeginDocument{\ifx\hyper@anchor\@undefined
\global\let\oldcontentsline\contentsline
\gdef\contentsline#1#2#3#4{\oldcontentsline{#1}{#2}{#3}}
\global\let\oldnewlabel\newlabel
\gdef\newlabel#1#2{\newlabelxx{#1}#2}
\gdef\newlabelxx#1#2#3#4#5#6{\oldnewlabel{#1}{{#2}{#3}}}
\AtEndDocument{\ifx\hyper@anchor\@undefined
\let\contentsline\oldcontentsline
\let\newlabel\oldnewlabel
\fi}
\fi}
\global\let\hyper@last\relax 
\gdef\HyperFirstAtBeginDocument#1{#1}
\providecommand\HyField@AuxAddToFields[1]{}
\providecommand\HyField@AuxAddToCoFields[2]{}
\catcode `:\active 
\catcode `;\active 
\catcode `!\active 
\catcode `?\active 
\babel@aux{french}{}
\@writefile{nav}{\headcommand {\slideentry {0}{0}{1}{1/1}{}{0}}}
\@writefile{nav}{\headcommand {\beamer@framepages {1}{1}}}
\@writefile{nav}{\headcommand {\slideentry {0}{0}{2}{2/2}{}{0}}}
\@writefile{nav}{\headcommand {\beamer@framepages {2}{2}}}
\@writefile{toc}{\beamer@sectionintoc {1}{Contexte}{3}{0}{1}}
\@writefile{nav}{\headcommand {\beamer@sectionpages {1}{2}}}
\@writefile{nav}{\headcommand {\beamer@subsectionpages {1}{2}}}
\@writefile{nav}{\headcommand {\sectionentry {1}{Contexte}{3}{Contexte}{0}}}
\@writefile{nav}{\headcommand {\slideentry {1}{0}{1}{3/3}{}{0}}}
\@writefile{nav}{\headcommand {\beamer@framepages {3}{3}}}
\@writefile{nav}{\headcommand {\slideentry {1}{0}{2}{4/4}{}{0}}}
\@writefile{nav}{\headcommand {\beamer@framepages {4}{4}}}
\@writefile{toc}{\beamer@sectionintoc {2}{Les variables}{5}{0}{2}}
\@writefile{nav}{\headcommand {\beamer@sectionpages {3}{4}}}
\@writefile{nav}{\headcommand {\beamer@subsectionpages {3}{4}}}
\@writefile{nav}{\headcommand {\sectionentry {2}{Les variables}{5}{Les variables}{0}}}
\@writefile{nav}{\headcommand {\slideentry {2}{0}{1}{5/5}{}{0}}}
\@writefile{nav}{\headcommand {\beamer@framepages {5}{5}}}
\@writefile{nav}{\headcommand {\slideentry {2}{0}{2}{6/6}{}{0}}}
\@writefile{nav}{\headcommand {\beamer@framepages {6}{6}}}
\@writefile{toc}{\beamer@subsectionintoc {2}{1}{M\IeC {\'e}moire et allocation}{7}{0}{2}}
\@writefile{nav}{\headcommand {\beamer@subsectionpages {5}{6}}}
\@writefile{nav}{\headcommand {\beamer@subsectionentry {0}{2}{1}{7}{M\IeC {\'e}moire et allocation}}}
\@writefile{nav}{\headcommand {\slideentry {2}{1}{1}{7/7}{M\IeC {\'e}moire et allocation}{0}}}
\@writefile{nav}{\headcommand {\beamer@framepages {7}{7}}}
\@writefile{nav}{\headcommand {\slideentry {2}{1}{1}{7/8}{M\IeC {\'e}moire et allocation}{0}}}
\@writefile{nav}{\headcommand {\beamer@framepages {7}{8}}}
\@writefile{toc}{\beamer@subsectionintoc {2}{2}{Copie profonde et copie superficielle}{9}{0}{2}}
\@writefile{nav}{\headcommand {\beamer@subsectionpages {7}{8}}}
\@writefile{nav}{\headcommand {\beamer@subsectionentry {0}{2}{2}{9}{Copie profonde et copie superficielle}}}
\@writefile{nav}{\headcommand {\slideentry {2}{2}{1}{9/9}{Copie profonde et copie superficielle}{0}}}
\@writefile{nav}{\headcommand {\beamer@framepages {9}{9}}}
\@writefile{nav}{\headcommand {\slideentry {2}{2}{1}{9/10}{Copie profonde et copie superficielle}{0}}}
\@writefile{nav}{\headcommand {\beamer@framepages {9}{10}}}
\@writefile{nav}{\headcommand {\slideentry {2}{2}{1}{9/11}{Copie profonde et copie superficielle}{0}}}
\@writefile{nav}{\headcommand {\beamer@framepages {9}{11}}}
\@writefile{nav}{\headcommand {\slideentry {2}{2}{1}{9/12}{Copie profonde et copie superficielle}{0}}}
\@writefile{nav}{\headcommand {\beamer@framepages {9}{12}}}
\@writefile{nav}{\headcommand {\slideentry {2}{2}{1}{9/13}{Copie profonde et copie superficielle}{0}}}
\@writefile{nav}{\headcommand {\beamer@framepages {9}{13}}}
\@writefile{nav}{\headcommand {\slideentry {2}{2}{1}{9/14}{Copie profonde et copie superficielle}{0}}}
\@writefile{nav}{\headcommand {\beamer@framepages {9}{14}}}
\@writefile{nav}{\headcommand {\slideentry {2}{2}{1}{9/15}{Copie profonde et copie superficielle}{0}}}
\@writefile{nav}{\headcommand {\beamer@framepages {9}{15}}}
\@writefile{nav}{\headcommand {\slideentry {2}{2}{1}{9/16}{Copie profonde et copie superficielle}{0}}}
\@writefile{nav}{\headcommand {\beamer@framepages {9}{16}}}
\@writefile{toc}{\beamer@subsectionintoc {2}{3}{Les types}{17}{0}{2}}
\@writefile{nav}{\headcommand {\beamer@subsectionpages {9}{16}}}
\@writefile{nav}{\headcommand {\beamer@subsectionentry {0}{2}{3}{17}{Les types}}}
\@writefile{nav}{\headcommand {\slideentry {2}{3}{1}{17/17}{Les types}{0}}}
\@writefile{nav}{\headcommand {\beamer@framepages {17}{17}}}
\@writefile{nav}{\headcommand {\slideentry {2}{3}{1}{17/18}{Les types}{0}}}
\@writefile{nav}{\headcommand {\beamer@framepages {17}{18}}}
\@writefile{nav}{\headcommand {\slideentry {2}{3}{1}{17/19}{Les types}{0}}}
\@writefile{nav}{\headcommand {\beamer@framepages {17}{19}}}
\@writefile{nav}{\headcommand {\slideentry {2}{3}{1}{17/20}{Les types}{0}}}
\@writefile{nav}{\headcommand {\beamer@framepages {17}{20}}}
\@writefile{toc}{\beamer@subsectionintoc {2}{4}{Op\IeC {\'e}rateurs binaires}{21}{0}{2}}
\@writefile{nav}{\headcommand {\beamer@subsectionpages {17}{20}}}
\@writefile{nav}{\headcommand {\beamer@subsectionentry {0}{2}{4}{21}{Op\IeC {\'e}rateurs binaires}}}
\@writefile{nav}{\headcommand {\slideentry {2}{4}{1}{21/21}{Op\IeC {\'e}rateurs binaires}{0}}}
\@writefile{nav}{\headcommand {\beamer@framepages {21}{21}}}
\@writefile{nav}{\headcommand {\slideentry {2}{4}{2}{22/22}{Op\IeC {\'e}rateurs binaires}{0}}}
\@writefile{nav}{\headcommand {\beamer@framepages {22}{22}}}
\@writefile{nav}{\headcommand {\slideentry {2}{4}{3}{23/23}{Op\IeC {\'e}rateurs binaires}{0}}}
\@writefile{nav}{\headcommand {\beamer@framepages {23}{23}}}
\@writefile{nav}{\headcommand {\slideentry {2}{4}{4}{24/24}{Op\IeC {\'e}rateurs binaires}{0}}}
\@writefile{nav}{\headcommand {\beamer@framepages {24}{24}}}
\@writefile{toc}{\beamer@subsectionintoc {2}{5}{Impression de variables}{25}{0}{2}}
\@writefile{nav}{\headcommand {\beamer@subsectionpages {21}{24}}}
\@writefile{nav}{\headcommand {\beamer@subsectionentry {0}{2}{5}{25}{Impression de variables}}}
\@writefile{nav}{\headcommand {\slideentry {2}{5}{1}{25/25}{Impression de variables}{0}}}
\@writefile{nav}{\headcommand {\beamer@framepages {25}{25}}}
\@writefile{nav}{\headcommand {\slideentry {2}{5}{1}{25/26}{Impression de variables}{0}}}
\@writefile{nav}{\headcommand {\beamer@framepages {25}{26}}}
\@writefile{nav}{\headcommand {\slideentry {2}{5}{1}{25/27}{Impression de variables}{0}}}
\@writefile{nav}{\headcommand {\beamer@framepages {25}{27}}}
\@writefile{toc}{\beamer@sectionintoc {3}{Op\IeC {\'e}rations automatis\IeC {\'e}es}{28}{0}{3}}
\@writefile{nav}{\headcommand {\beamer@sectionpages {5}{27}}}
\@writefile{nav}{\headcommand {\beamer@subsectionpages {25}{27}}}
\@writefile{nav}{\headcommand {\sectionentry {3}{Op\IeC {\'e}rations automatis\IeC {\'e}es}{28}{Op\IeC {\'e}rations automatis\IeC {\'e}es}{0}}}
\@writefile{nav}{\headcommand {\slideentry {3}{0}{1}{28/28}{}{0}}}
\@writefile{nav}{\headcommand {\beamer@framepages {28}{28}}}
\@writefile{toc}{\beamer@subsectionintoc {3}{1}{Listes}{29}{0}{3}}
\@writefile{nav}{\headcommand {\beamer@subsectionpages {28}{28}}}
\@writefile{nav}{\headcommand {\beamer@subsectionentry {0}{3}{1}{29}{Listes}}}
\@writefile{nav}{\headcommand {\slideentry {3}{1}{1}{29/29}{Listes}{0}}}
\@writefile{nav}{\headcommand {\beamer@framepages {29}{29}}}
\@writefile{nav}{\headcommand {\slideentry {3}{1}{1}{29/30}{Listes}{0}}}
\@writefile{nav}{\headcommand {\beamer@framepages {29}{30}}}
\@writefile{nav}{\headcommand {\slideentry {3}{1}{1}{29/31}{Listes}{0}}}
\@writefile{nav}{\headcommand {\beamer@framepages {29}{31}}}
\@writefile{nav}{\headcommand {\slideentry {3}{1}{1}{29/32}{Listes}{0}}}
\@writefile{nav}{\headcommand {\beamer@framepages {29}{32}}}
\@writefile{nav}{\headcommand {\slideentry {3}{1}{1}{29/33}{Listes}{0}}}
\@writefile{nav}{\headcommand {\beamer@framepages {29}{33}}}
\@writefile{nav}{\headcommand {\slideentry {3}{1}{1}{29/34}{Listes}{0}}}
\@writefile{nav}{\headcommand {\beamer@framepages {29}{34}}}
\@writefile{toc}{\beamer@subsectionintoc {3}{2}{Boucles d\IeC {\'e}termin\IeC {\'e}es}{35}{0}{3}}
\@writefile{nav}{\headcommand {\beamer@subsectionpages {29}{34}}}
\@writefile{nav}{\headcommand {\beamer@subsectionentry {0}{3}{2}{35}{Boucles d\IeC {\'e}termin\IeC {\'e}es}}}
\@writefile{nav}{\headcommand {\slideentry {3}{2}{1}{35/35}{Boucles d\IeC {\'e}termin\IeC {\'e}es}{0}}}
\@writefile{nav}{\headcommand {\beamer@framepages {35}{35}}}
\@writefile{nav}{\headcommand {\slideentry {3}{2}{2}{36/36}{Boucles d\IeC {\'e}termin\IeC {\'e}es}{0}}}
\@writefile{nav}{\headcommand {\beamer@framepages {36}{36}}}
\@writefile{nav}{\headcommand {\slideentry {3}{2}{3}{37/37}{Boucles d\IeC {\'e}termin\IeC {\'e}es}{0}}}
\@writefile{nav}{\headcommand {\beamer@framepages {37}{37}}}
\@writefile{toc}{\beamer@subsectionintoc {3}{3}{Boucles \IeC {\`a} tests}{38}{0}{3}}
\@writefile{nav}{\headcommand {\beamer@subsectionpages {35}{37}}}
\@writefile{nav}{\headcommand {\beamer@subsectionentry {0}{3}{3}{38}{Boucles \IeC {\`a} tests}}}
\@writefile{nav}{\headcommand {\slideentry {3}{3}{1}{38/38}{Boucles \IeC {\`a} tests}{0}}}
\@writefile{nav}{\headcommand {\beamer@framepages {38}{38}}}
\@writefile{nav}{\headcommand {\slideentry {3}{3}{1}{38/39}{Boucles \IeC {\`a} tests}{0}}}
\@writefile{nav}{\headcommand {\beamer@framepages {38}{39}}}
\@writefile{toc}{\beamer@sectionintoc {4}{Proc\IeC {\'e}dures}{40}{0}{4}}
\@writefile{nav}{\headcommand {\beamer@sectionpages {28}{39}}}
\@writefile{nav}{\headcommand {\beamer@subsectionpages {38}{39}}}
\@writefile{nav}{\headcommand {\sectionentry {4}{Proc\IeC {\'e}dures}{40}{Proc\IeC {\'e}dures}{0}}}
\@writefile{nav}{\headcommand {\slideentry {4}{0}{1}{40/40}{}{0}}}
\@writefile{nav}{\headcommand {\beamer@framepages {40}{40}}}
\@writefile{toc}{\beamer@subsectionintoc {4}{1}{Fonctions}{41}{0}{4}}
\@writefile{nav}{\headcommand {\beamer@subsectionpages {40}{40}}}
\@writefile{nav}{\headcommand {\beamer@subsectionentry {0}{4}{1}{41}{Fonctions}}}
\@writefile{nav}{\headcommand {\slideentry {4}{1}{1}{41/41}{Fonctions}{0}}}
\@writefile{nav}{\headcommand {\beamer@framepages {41}{41}}}
\@writefile{nav}{\headcommand {\slideentry {4}{1}{2}{42/42}{Fonctions}{0}}}
\@writefile{nav}{\headcommand {\beamer@framepages {42}{42}}}
\@writefile{nav}{\headcommand {\slideentry {4}{1}{2}{42/43}{Fonctions}{0}}}
\@writefile{nav}{\headcommand {\beamer@framepages {42}{43}}}
\@writefile{nav}{\headcommand {\slideentry {4}{1}{2}{42/44}{Fonctions}{0}}}
\@writefile{nav}{\headcommand {\beamer@framepages {42}{44}}}
\@writefile{toc}{\beamer@subsectionintoc {4}{2}{Op\IeC {\'e}rations r\IeC {\'e}cursives}{45}{0}{4}}
\@writefile{nav}{\headcommand {\beamer@subsectionpages {41}{44}}}
\@writefile{nav}{\headcommand {\beamer@subsectionentry {0}{4}{2}{45}{Op\IeC {\'e}rations r\IeC {\'e}cursives}}}
\@writefile{nav}{\headcommand {\slideentry {4}{2}{1}{45/45}{Op\IeC {\'e}rations r\IeC {\'e}cursives}{0}}}
\@writefile{nav}{\headcommand {\beamer@framepages {45}{45}}}
\@writefile{nav}{\headcommand {\slideentry {4}{2}{1}{45/46}{Op\IeC {\'e}rations r\IeC {\'e}cursives}{0}}}
\@writefile{nav}{\headcommand {\beamer@framepages {45}{46}}}
\@writefile{nav}{\headcommand {\slideentry {4}{2}{2}{47/47}{Op\IeC {\'e}rations r\IeC {\'e}cursives}{0}}}
\@writefile{nav}{\headcommand {\beamer@framepages {47}{47}}}
\@writefile{nav}{\headcommand {\beamer@partpages {1}{47}}}
\@writefile{nav}{\headcommand {\beamer@subsectionpages {45}{47}}}
\@writefile{nav}{\headcommand {\beamer@sectionpages {40}{47}}}
\@writefile{nav}{\headcommand {\beamer@documentpages {47}}}
\@writefile{nav}{\headcommand {\gdef \inserttotalframenumber {47}}}
